{
  "R0":
  {
    "sensor_area": 89.9031 
  },
  "R1":
  {
    "sensor_area": 89.0575 
  },
  "R2":
  {
    "sensor_area": 74.1855
  },
  "R3":
  {
    "sensor_area": 80.1679
  },
  "R4":
  {
    "sensor_area": 174.9014
  },
  "R5":
  {
    "sensor_area": 182.2536 
  },
  "LS":
  {
    "sensor_area": 93.63
  },
  "SS":
  {
    "sensor_area": 93.63
  }
}
